Replace this with an interesting title – Home
…
Predict response

kcc_linear_predictions_tidy <- kcc_linear_fit |>
  predict(new_data = kcc_g_test)

Warning in predict.lm(object = object$fit, newdata = new_data, type =
"response", : prediction from rank-deficient fit; consider predict(.,
rankdeficient="NA")

kcc_linear_predictions_tidy

# A tibble: 41 × 1
   .pred
   <dbl>
 1  23.5
 2  28.3
 3  34.0
 4  31.1
 5  24.5
 6  28.1
 7  32.8
 8  20.9
 9  20.9
10  26.9
# ℹ 31 more rows
…
    Year,
    Ppp,
    PtS,
    .pred,
    PtA,
    TotYd,
    PassY,
    RushY,
    TotYd_Alwd,
    PassY_Alwd,
    RushY_Alwd,
    everything()
  )

# A tibble: 41 × 29
    Year Ppp             PtS .pred   PtA TotYd PassY RushY TotYd_Alwd PassY_Alwd
   <int> <chr>         <dbl> <dbl> <dbl> <dbl> <dbl> <dbl>      <dbl>      <dbl>
 1  2023 Detroit Lions    20  23.5    21   316   226    90        368        250
 2  2023 Jacksonville…    17  28.3     9   399   298   101        271        197
 3  2023 Chicago Bears    41  34.0    10   456   303   153        203         87
 4  2023 New York Jets    23  31.1    20   401   197   204        336        228
 5  2023 Minnesota Vi…    27  24.5    20   333   266    67        329        259
 6  2023 Denver Bronc…    19  28.1     8   389   293    96        197         82
 7  2023 Los Angeles …    31  32.8    17   483   415    68        358        219
 8  2023 Denver Bronc…     9  20.9    24   274   212    62        240         87
 9  2023 Miami Dolphi…    21  20.9    14   267   174    93        292        175
10  2023 Philadelphia…    17  26.9    21   336   168   168        238        124
# ℹ 31 more rows
# ℹ 19 more variables: RushY_Alwd <dbl>, .resid <dbl>, Week <chr>, Day <chr>,
#   Date <date>, Time <chr>, Boxscore <chr>, Outcome <chr>, OT <chr>,
#   Rec <chr>, Location <chr>, FirstD <dbl>, TO <dbl>, FirstD_Alwd <dbl>,
#   TO_Alwd <dbl>, ExOff <dbl>, ExDef <dbl>, ExSpec <dbl>, Taylor_Attend <chr>
…
    Year,
    Ppp,
    PtS,
    .pred,
    PtA,
    TotYd,
    PassY,
    RushY,
    TotYd_Alwd,
    PassY_Alwd,
    RushY_Alwd,
    everything()
  )

# A tibble: 41 × 29
    Year Ppp             PtS .pred   PtA TotYd PassY RushY TotYd_Alwd PassY_Alwd
   <int> <chr>         <dbl> <dbl> <dbl> <dbl> <dbl> <dbl>      <dbl>      <dbl>
 1  2023 Detroit Lions    20  23.5    21   316   226    90        368        250
 2  2023 Jacksonville…    17  28.3     9   399   298   101        271        197
 3  2023 Chicago Bears    41  34.0    10   456   303   153        203         87
 4  2023 New York Jets    23  31.1    20   401   197   204        336        228
 5  2023 Minnesota Vi…    27  24.5    20   333   266    67        329        259
 6  2023 Denver Bronc…    19  28.1     8   389   293    96        197         82
 7  2023 Los Angeles …    31  32.8    17   483   415    68        358        219
 8  2023 Denver Bronc…     9  20.9    24   274   212    62        240         87
 9  2023 Miami Dolphi…    21  20.9    14   267   174    93        292        175
10  2023 Philadelphia…    17  26.9    21   336   168   168        238        124
# ℹ 31 more rows
# ℹ 19 more variables: RushY_Alwd <dbl>, .resid <dbl>, Week <chr>, Day <chr>,
#   Date <date>, Time <chr>, Boxscore <chr>, Outcome <chr>, OT <chr>,
#   Rec <chr>, Location <chr>, FirstD <dbl>, TO <dbl>, FirstD_Alwd <dbl>,
#   TO_Alwd <dbl>, ExOff <dbl>, ExDef <dbl>, ExSpec <dbl>, Taylor_Attend <chr>
…
