Shake It Off-ense: A Statitistical Study On Taylor Swifts Influence On The Kansas City Chiefs – Home
…
# augment is in the broom package, loaded with tidymodels
kcc_predictions_test <- kcc_quadratic_fit |>
  augment(
  new_data = kcc_g_test,
)
  
kcc_predictions_test |>
  dplyr::select(
    Year,
    Ppp,
    PtS,
    .pred
  )

# A tibble: 41 × 4
    Year Ppp                    PtS .pred
   <int> <chr>                <dbl> <dbl>
 1  2023 Detroit Lions           20  23.4
 2  2023 Jacksonville Jaguars    17  26.3
 3  2023 Chicago Bears           41  30.6
 4  2023 New York Jets           23  30.6
 5  2023 Minnesota Vikings       27  24.4
 6  2023 Denver Broncos          19  23.6
 7  2023 Los Angeles Chargers    31  32.1
 8  2023 Denver Broncos           9  18.1
 9  2023 Miami Dolphins          21  20.3
10  2023 Philadelphia Eagles     17  24.3
# ℹ 31 more rows
…
    Year,
    Ppp,
    PtS,
    .pred,
    PtA,
    TotYd,
    PassY,
    RushY,
    TotYd_Alwd,
    PassY_Alwd,
    RushY_Alwd,
    everything()
  )

# A tibble: 23 × 29
    Year Ppp             PtS .pred   PtA TotYd PassY RushY TotYd_Alwd PassY_Alwd
   <int> <chr>         <dbl> <dbl> <dbl> <dbl> <dbl> <dbl>      <dbl>      <dbl>
 1  2023 Chicago Bears    41  30.6    10   456   303   153        203         87
 2  2023 New York Jets    23  30.6    20   401   197   204        336        228
 3  2023 Denver Bronc…    19  23.6     8   389   293    96        197         82
 4  2023 Los Angeles …    31  32.1    17   483   415    68        358        219
 5  2023 Green Bay Pa…    19  27.2    27   337   189   148        382        253
 6  2023 Buffalo Bills    17  24.1    20   346   264    82        327        209
 7  2023 New England …    27  20.8    17   326   283    43        206        154
 8  2023 Las Vegas Ra…    14  18.8    20   308   223    85        205         48
 9  2023 Cincinnati B…    25  24.1    17   373   241   132        263        159
10  2023 Miami Dolphi…    26  28.9     7   409   262   147        264        188
# ℹ 13 more rows
# ℹ 19 more variables: RushY_Alwd <dbl>, .resid <dbl>, Week <chr>, Day <chr>,
#   Date <date>, Time <chr>, Boxscore <chr>, Outcome <chr>, OT <chr>,
#   Rec <chr>, Location <chr>, FirstD <dbl>, TO <dbl>, FirstD_Alwd <dbl>,
#   TO_Alwd <dbl>, ExOff <dbl>, ExDef <dbl>, ExSpec <dbl>, Taylor_Attend <chr>
…
